C:\Users\Joanna667\Desktop\ProjektPK\IdzDoWiezienia\src\main\java\com\mycompany\idzdowiezienia\IdzDoWiezienia.java
C:\Users\Joanna667\Desktop\ProjektPK\IdzDoWiezienia\src\main\java\com\mycompany\idzdowiezienia\Activator.java
C:\Users\Joanna667\Desktop\ProjektPK\IdzDoWiezienia\src\main\java\com\mycompany\idzdowiezienia\contracts\IAresztuj.java
